v 20130925 2
C 44400 53300 1 0 0 7404-1.sym
{
T 45000 54200 5 10 0 0 0 0 1
device=7404
T 44700 54200 5 10 1 1 0 0 1
refdes=U?
T 45000 56800 5 10 0 0 0 0 1
footprint=DIP14
}
C 47800 69300 1 0 0 7404-1.sym
{
T 48400 70200 5 10 0 0 0 0 1
device=7404
T 48100 70200 5 10 1 1 0 0 1
refdes=U3
T 48400 72800 5 10 0 0 0 0 1
footprint=DIP14
}
C 47800 70500 1 0 0 7404-1.sym
{
T 48400 71400 5 10 0 0 0 0 1
device=7404
T 48100 71400 5 10 1 1 0 0 1
refdes=U3
T 48400 74000 5 10 0 0 0 0 1
footprint=DIP14
}
C 53600 62900 1 90 0 7404-1.sym
{
T 52700 63500 5 10 0 0 90 0 1
device=7404
T 52700 63200 5 10 1 1 90 0 1
refdes=U?
T 50100 63500 5 10 0 0 90 0 1
footprint=DIP14
}
C 50100 63300 1 0 0 7404-1.sym
{
T 50700 64200 5 10 0 0 0 0 1
device=7404
T 50400 64200 5 10 1 1 0 0 1
refdes=U3
T 50700 66800 5 10 0 0 0 0 1
footprint=DIP14
}
T 50300 57500 5 10 0 0 0 0 1
device=7432
T 50300 57700 5 10 0 0 0 0 1
slot=1
T 50300 57900 5 10 0 0 0 0 1
numslots=4
T 50300 58100 5 10 0 0 0 0 1
slotdef=1:1,2,3
T 50300 58300 5 10 0 0 0 0 1
slotdef=2:4,5,6
T 50300 58500 5 10 0 0 0 0 1
slotdef=3:9,10,8
T 50300 58700 5 10 0 0 0 0 1
slotdef=4:12,13,11
T 50300 58900 5 10 0 0 0 0 1
footprint=DIP14
T 50300 59100 5 10 0 0 0 0 1
description=4 OR gates with 2 inputs
T 50300 59300 5 10 0 0 0 0 1
net=Vcc:14
T 50300 59500 5 10 0 0 0 0 1
net=GND:7
T 50300 59700 5 10 0 0 0 0 1
documentation=http://www-s.ti.com/sc/ds/sn74hc32.pdf
T 52600 60400 5 10 0 0 0 0 1
device=7432
T 52600 60600 5 10 0 0 0 0 1
slot=1
T 52600 60800 5 10 0 0 0 0 1
numslots=4
T 52600 61000 5 10 0 0 0 0 1
slotdef=1:1,2,3
T 52600 61200 5 10 0 0 0 0 1
slotdef=2:4,5,6
T 52600 61400 5 10 0 0 0 0 1
slotdef=3:9,10,8
T 52600 61600 5 10 0 0 0 0 1
slotdef=4:12,13,11
T 52600 61800 5 10 0 0 0 0 1
footprint=DIP14
T 52600 62000 5 10 0 0 0 0 1
description=4 OR gates with 2 inputs
T 52600 62200 5 10 0 0 0 0 1
net=Vcc:14
T 52600 62400 5 10 0 0 0 0 1
net=GND:7
T 52600 62600 5 10 0 0 0 0 1
documentation=http://www-s.ti.com/sc/ds/sn74hc32.pdf
C 51000 68900 1 0 0 EMBEDDED7432-1.sym
[
L 51260 69100 51600 69100 3 0 0 0 -1 -1
L 51260 69700 51600 69700 3 0 0 0 -1 -1
A 51000 69400 400 312 97 3 0 0 0 -1 -1
P 51300 69600 51000 69600 1 0 1
{
T 51200 69650 5 8 1 1 0 6 1
pinnumber=1
T 51200 69550 5 8 0 1 0 8 1
pinseq=1
T 51350 69600 9 8 0 1 0 0 1
pinlabel=A
T 51350 69600 5 8 0 1 0 2 1
pintype=in
}
P 51300 69200 51000 69200 1 0 1
{
T 51200 69250 5 8 1 1 0 6 1
pinnumber=2
T 51200 69150 5 8 0 1 0 8 1
pinseq=2
T 51350 69200 9 8 0 1 0 0 1
pinlabel=B
T 51350 69200 5 8 0 1 0 2 1
pintype=in
}
P 52300 69400 51988 69400 1 0 0
{
T 52100 69450 5 8 1 1 0 0 1
pinnumber=3
T 52100 69350 5 8 0 1 0 2 1
pinseq=3
T 51950 69400 9 8 0 1 0 6 1
pinlabel=Y
T 51950 69400 5 8 0 1 0 8 1
pintype=out
}
A 51600 69500 400 270 76 3 0 0 0 -1 -1
A 51600 69300 400 14 76 3 0 0 0 -1 -1
T 51600 69800 5 10 0 0 0 0 1
device=7432
T 51600 70000 5 10 0 0 0 0 1
slot=1
T 51600 70200 5 10 0 0 0 0 1
numslots=4
T 51600 70400 5 10 0 0 0 0 1
slotdef=1:1,2,3
T 51600 70600 5 10 0 0 0 0 1
slotdef=2:4,5,6
T 51600 70800 5 10 0 0 0 0 1
slotdef=3:9,10,8
T 51600 71000 5 10 0 0 0 0 1
slotdef=4:12,13,11
T 51300 68900 9 8 1 0 0 0 1
7432
T 51300 69800 8 10 0 1 0 0 1
refdes=U?
T 51600 71200 5 10 0 0 0 0 1
footprint=DIP14
T 51600 71400 5 10 0 0 0 0 1
description=4 OR gates with 2 inputs
T 51600 71600 5 10 0 0 0 0 1
net=Vcc:14
T 51600 71800 5 10 0 0 0 0 1
net=GND:7
T 51600 72000 5 10 0 0 0 0 1
documentation=http://www-s.ti.com/sc/ds/sn74hc32.pdf
]
{
T 51600 69800 5 10 0 0 0 0 1
device=7432
T 51300 69800 5 10 1 1 0 0 1
refdes=U0
T 51600 71200 5 10 0 0 0 0 1
footprint=DIP14
}
C 55000 63300 1 180 0 EMBEDDED7432-1.sym
[
L 54740 63100 54400 63100 3 0 0 0 -1 -1
L 54740 62500 54400 62500 3 0 0 0 -1 -1
A 55000 62800 400 132 97 3 0 0 0 -1 -1
P 54700 62600 55000 62600 1 0 1
{
T 54800 62550 5 8 1 1 180 6 1
pinnumber=1
T 54800 62650 5 8 0 1 180 8 1
pinseq=1
T 54650 62600 9 8 0 1 180 0 1
pinlabel=A
T 54650 62600 5 8 0 1 180 2 1
pintype=in
}
P 54700 63000 55000 63000 1 0 1
{
T 54800 62950 5 8 1 1 180 6 1
pinnumber=2
T 54800 63050 5 8 0 1 180 8 1
pinseq=2
T 54650 63000 9 8 0 1 180 0 1
pinlabel=B
T 54650 63000 5 8 0 1 180 2 1
pintype=in
}
P 53700 62800 54012 62800 1 0 0
{
T 53900 62750 5 8 1 1 180 0 1
pinnumber=3
T 53900 62850 5 8 0 1 180 2 1
pinseq=3
T 54050 62800 9 8 0 1 180 6 1
pinlabel=Y
T 54050 62800 5 8 0 1 180 8 1
pintype=out
}
A 54400 62700 400 90 76 3 0 0 0 -1 -1
A 54400 62900 400 194 76 3 0 0 0 -1 -1
T 54400 62400 5 10 0 0 180 0 1
device=7432
T 54400 62200 5 10 0 0 180 0 1
slot=1
T 54400 62000 5 10 0 0 180 0 1
numslots=4
T 54400 61800 5 10 0 0 180 0 1
slotdef=1:1,2,3
T 54400 61600 5 10 0 0 180 0 1
slotdef=2:4,5,6
T 54400 61400 5 10 0 0 180 0 1
slotdef=3:9,10,8
T 54400 61200 5 10 0 0 180 0 1
slotdef=4:12,13,11
T 54700 63300 9 8 1 0 180 0 1
7432
T 54700 62400 8 10 0 1 180 0 1
refdes=U?
T 54400 61000 5 10 0 0 180 0 1
footprint=DIP14
T 54400 60800 5 10 0 0 180 0 1
description=4 OR gates with 2 inputs
T 54400 60600 5 10 0 0 180 0 1
net=Vcc:14
T 54400 60400 5 10 0 0 180 0 1
net=GND:7
T 54400 60200 5 10 0 0 180 0 1
documentation=http://www-s.ti.com/sc/ds/sn74hc32.pdf
]
{
T 54400 62400 5 10 0 0 180 0 1
device=7432
T 54700 62400 5 10 1 1 180 0 1
refdes=U?
T 54400 61000 5 10 0 0 180 0 1
footprint=DIP14
}
C 52600 64800 1 0 0 EMBEDDED7432-1.sym
[
L 52860 65000 53200 65000 3 0 0 0 -1 -1
L 52860 65600 53200 65600 3 0 0 0 -1 -1
A 52600 65300 400 312 97 3 0 0 0 -1 -1
P 52900 65500 52600 65500 1 0 1
{
T 52800 65550 5 8 1 1 0 6 1
pinnumber=1
T 52800 65450 5 8 0 1 0 8 1
pinseq=1
T 52950 65500 9 8 0 1 0 0 1
pinlabel=A
T 52950 65500 5 8 0 1 0 2 1
pintype=in
}
P 52900 65100 52600 65100 1 0 1
{
T 52800 65150 5 8 1 1 0 6 1
pinnumber=2
T 52800 65050 5 8 0 1 0 8 1
pinseq=2
T 52950 65100 9 8 0 1 0 0 1
pinlabel=B
T 52950 65100 5 8 0 1 0 2 1
pintype=in
}
P 53900 65300 53588 65300 1 0 0
{
T 53700 65350 5 8 1 1 0 0 1
pinnumber=3
T 53700 65250 5 8 0 1 0 2 1
pinseq=3
T 53550 65300 9 8 0 1 0 6 1
pinlabel=Y
T 53550 65300 5 8 0 1 0 8 1
pintype=out
}
A 53200 65400 400 270 76 3 0 0 0 -1 -1
A 53200 65200 400 14 76 3 0 0 0 -1 -1
T 53200 65700 5 10 0 0 0 0 1
device=7432
T 53200 65900 5 10 0 0 0 0 1
slot=1
T 53200 66100 5 10 0 0 0 0 1
numslots=4
T 53200 66300 5 10 0 0 0 0 1
slotdef=1:1,2,3
T 53200 66500 5 10 0 0 0 0 1
slotdef=2:4,5,6
T 53200 66700 5 10 0 0 0 0 1
slotdef=3:9,10,8
T 53200 66900 5 10 0 0 0 0 1
slotdef=4:12,13,11
T 52900 64800 9 8 1 0 0 0 1
7432
T 52900 65700 8 10 0 1 0 0 1
refdes=U?
T 53200 67100 5 10 0 0 0 0 1
footprint=DIP14
T 53200 67300 5 10 0 0 0 0 1
description=4 OR gates with 2 inputs
T 53200 67500 5 10 0 0 0 0 1
net=Vcc:14
T 53200 67700 5 10 0 0 0 0 1
net=GND:7
T 53200 67900 5 10 0 0 0 0 1
documentation=http://www-s.ti.com/sc/ds/sn74hc32.pdf
]
{
T 53200 65700 5 10 0 0 0 0 1
device=7432
T 52900 65700 5 10 1 1 0 0 1
refdes=U?
T 53200 67100 5 10 0 0 0 0 1
footprint=DIP14
}
C 47900 67200 1 0 0 EMBEDDED7432-1.sym
[
L 48160 67400 48500 67400 3 0 0 0 -1 -1
L 48160 68000 48500 68000 3 0 0 0 -1 -1
A 47900 67700 400 312 97 3 0 0 0 -1 -1
P 48200 67900 47900 67900 1 0 1
{
T 48100 67950 5 8 1 1 0 6 1
pinnumber=1
T 48100 67850 5 8 0 1 0 8 1
pinseq=1
T 48250 67900 9 8 0 1 0 0 1
pinlabel=A
T 48250 67900 5 8 0 1 0 2 1
pintype=in
}
P 48200 67500 47900 67500 1 0 1
{
T 48100 67550 5 8 1 1 0 6 1
pinnumber=2
T 48100 67450 5 8 0 1 0 8 1
pinseq=2
T 48250 67500 9 8 0 1 0 0 1
pinlabel=B
T 48250 67500 5 8 0 1 0 2 1
pintype=in
}
P 49200 67700 48888 67700 1 0 0
{
T 49000 67750 5 8 1 1 0 0 1
pinnumber=3
T 49000 67650 5 8 0 1 0 2 1
pinseq=3
T 48850 67700 9 8 0 1 0 6 1
pinlabel=Y
T 48850 67700 5 8 0 1 0 8 1
pintype=out
}
A 48500 67800 400 270 76 3 0 0 0 -1 -1
A 48500 67600 400 14 76 3 0 0 0 -1 -1
T 48500 68100 5 10 0 0 0 0 1
device=7432
T 48500 68300 5 10 0 0 0 0 1
slot=1
T 48500 68500 5 10 0 0 0 0 1
numslots=4
T 48500 68700 5 10 0 0 0 0 1
slotdef=1:1,2,3
T 48500 68900 5 10 0 0 0 0 1
slotdef=2:4,5,6
T 48500 69100 5 10 0 0 0 0 1
slotdef=3:9,10,8
T 48500 69300 5 10 0 0 0 0 1
slotdef=4:12,13,11
T 48200 67200 9 8 1 0 0 0 1
7432
T 48200 68100 8 10 0 1 0 0 1
refdes=U?
T 48500 69500 5 10 0 0 0 0 1
footprint=DIP14
T 48500 69700 5 10 0 0 0 0 1
description=4 OR gates with 2 inputs
T 48500 69900 5 10 0 0 0 0 1
net=Vcc:14
T 48500 70100 5 10 0 0 0 0 1
net=GND:7
T 48500 70300 5 10 0 0 0 0 1
documentation=http://www-s.ti.com/sc/ds/sn74hc32.pdf
]
{
T 48500 68100 5 10 0 0 0 0 1
device=7432
T 48200 68100 5 10 1 1 0 0 1
refdes=U0
T 48500 69500 5 10 0 0 0 0 1
footprint=DIP14
}
C 47900 64600 1 0 0 EMBEDDED7432-1.sym
[
L 48160 64800 48500 64800 3 0 0 0 -1 -1
L 48160 65400 48500 65400 3 0 0 0 -1 -1
A 47900 65100 400 312 97 3 0 0 0 -1 -1
P 48200 65300 47900 65300 1 0 1
{
T 48100 65350 5 8 1 1 0 6 1
pinnumber=1
T 48100 65250 5 8 0 1 0 8 1
pinseq=1
T 48250 65300 9 8 0 1 0 0 1
pinlabel=A
T 48250 65300 5 8 0 1 0 2 1
pintype=in
}
P 48200 64900 47900 64900 1 0 1
{
T 48100 64950 5 8 1 1 0 6 1
pinnumber=2
T 48100 64850 5 8 0 1 0 8 1
pinseq=2
T 48250 64900 9 8 0 1 0 0 1
pinlabel=B
T 48250 64900 5 8 0 1 0 2 1
pintype=in
}
P 49200 65100 48888 65100 1 0 0
{
T 49000 65150 5 8 1 1 0 0 1
pinnumber=3
T 49000 65050 5 8 0 1 0 2 1
pinseq=3
T 48850 65100 9 8 0 1 0 6 1
pinlabel=Y
T 48850 65100 5 8 0 1 0 8 1
pintype=out
}
A 48500 65200 400 270 76 3 0 0 0 -1 -1
A 48500 65000 400 14 76 3 0 0 0 -1 -1
T 48500 65500 5 10 0 0 0 0 1
device=7432
T 48500 65700 5 10 0 0 0 0 1
slot=1
T 48500 65900 5 10 0 0 0 0 1
numslots=4
T 48500 66100 5 10 0 0 0 0 1
slotdef=1:1,2,3
T 48500 66300 5 10 0 0 0 0 1
slotdef=2:4,5,6
T 48500 66500 5 10 0 0 0 0 1
slotdef=3:9,10,8
T 48500 66700 5 10 0 0 0 0 1
slotdef=4:12,13,11
T 48200 64600 9 8 1 0 0 0 1
7432
T 48200 65500 8 10 0 1 0 0 1
refdes=U?
T 48500 66900 5 10 0 0 0 0 1
footprint=DIP14
T 48500 67100 5 10 0 0 0 0 1
description=4 OR gates with 2 inputs
T 48500 67300 5 10 0 0 0 0 1
net=Vcc:14
T 48500 67500 5 10 0 0 0 0 1
net=GND:7
T 48500 67700 5 10 0 0 0 0 1
documentation=http://www-s.ti.com/sc/ds/sn74hc32.pdf
]
{
T 48500 65500 5 10 0 0 0 0 1
device=7432
T 48200 65500 5 10 1 1 0 0 1
refdes=U1
T 48500 66900 5 10 0 0 0 0 1
footprint=DIP14
}
C 46400 64400 1 0 0 EMBEDDED7432-1.sym
[
L 46660 64600 47000 64600 3 0 0 0 -1 -1
L 46660 65200 47000 65200 3 0 0 0 -1 -1
A 46400 64900 400 312 97 3 0 0 0 -1 -1
P 46700 65100 46400 65100 1 0 1
{
T 46600 65150 5 8 1 1 0 6 1
pinnumber=1
T 46600 65050 5 8 0 1 0 8 1
pinseq=1
T 46750 65100 9 8 0 1 0 0 1
pinlabel=A
T 46750 65100 5 8 0 1 0 2 1
pintype=in
}
P 46700 64700 46400 64700 1 0 1
{
T 46600 64750 5 8 1 1 0 6 1
pinnumber=2
T 46600 64650 5 8 0 1 0 8 1
pinseq=2
T 46750 64700 9 8 0 1 0 0 1
pinlabel=B
T 46750 64700 5 8 0 1 0 2 1
pintype=in
}
P 47700 64900 47388 64900 1 0 0
{
T 47500 64950 5 8 1 1 0 0 1
pinnumber=3
T 47500 64850 5 8 0 1 0 2 1
pinseq=3
T 47350 64900 9 8 0 1 0 6 1
pinlabel=Y
T 47350 64900 5 8 0 1 0 8 1
pintype=out
}
A 47000 65000 400 270 76 3 0 0 0 -1 -1
A 47000 64800 400 14 76 3 0 0 0 -1 -1
T 47000 65300 5 10 0 0 0 0 1
device=7432
T 47000 65500 5 10 0 0 0 0 1
slot=1
T 47000 65700 5 10 0 0 0 0 1
numslots=4
T 47000 65900 5 10 0 0 0 0 1
slotdef=1:1,2,3
T 47000 66100 5 10 0 0 0 0 1
slotdef=2:4,5,6
T 47000 66300 5 10 0 0 0 0 1
slotdef=3:9,10,8
T 47000 66500 5 10 0 0 0 0 1
slotdef=4:12,13,11
T 46700 64400 9 8 1 0 0 0 1
7432
T 46700 65300 8 10 0 1 0 0 1
refdes=U?
T 47000 66700 5 10 0 0 0 0 1
footprint=DIP14
T 47000 66900 5 10 0 0 0 0 1
description=4 OR gates with 2 inputs
T 47000 67100 5 10 0 0 0 0 1
net=Vcc:14
T 47000 67300 5 10 0 0 0 0 1
net=GND:7
T 47000 67500 5 10 0 0 0 0 1
documentation=http://www-s.ti.com/sc/ds/sn74hc32.pdf
]
{
T 47000 65300 5 10 0 0 0 0 1
device=7432
T 46700 65300 5 10 1 1 0 0 1
refdes=U1
T 47000 66700 5 10 0 0 0 0 1
footprint=DIP14
}
C 47900 65900 1 0 0 EMBEDDED7432-1.sym
[
L 48160 66100 48500 66100 3 0 0 0 -1 -1
L 48160 66700 48500 66700 3 0 0 0 -1 -1
A 47900 66400 400 312 97 3 0 0 0 -1 -1
P 48200 66600 47900 66600 1 0 1
{
T 48100 66650 5 8 1 1 0 6 1
pinnumber=1
T 48100 66550 5 8 0 1 0 8 1
pinseq=1
T 48250 66600 9 8 0 1 0 0 1
pinlabel=A
T 48250 66600 5 8 0 1 0 2 1
pintype=in
}
P 48200 66200 47900 66200 1 0 1
{
T 48100 66250 5 8 1 1 0 6 1
pinnumber=2
T 48100 66150 5 8 0 1 0 8 1
pinseq=2
T 48250 66200 9 8 0 1 0 0 1
pinlabel=B
T 48250 66200 5 8 0 1 0 2 1
pintype=in
}
P 49200 66400 48888 66400 1 0 0
{
T 49000 66450 5 8 1 1 0 0 1
pinnumber=3
T 49000 66350 5 8 0 1 0 2 1
pinseq=3
T 48850 66400 9 8 0 1 0 6 1
pinlabel=Y
T 48850 66400 5 8 0 1 0 8 1
pintype=out
}
A 48500 66500 400 270 76 3 0 0 0 -1 -1
A 48500 66300 400 14 76 3 0 0 0 -1 -1
T 48500 66800 5 10 0 0 0 0 1
device=7432
T 48500 67000 5 10 0 0 0 0 1
slot=1
T 48500 67200 5 10 0 0 0 0 1
numslots=4
T 48500 67400 5 10 0 0 0 0 1
slotdef=1:1,2,3
T 48500 67600 5 10 0 0 0 0 1
slotdef=2:4,5,6
T 48500 67800 5 10 0 0 0 0 1
slotdef=3:9,10,8
T 48500 68000 5 10 0 0 0 0 1
slotdef=4:12,13,11
T 48200 65900 9 8 1 0 0 0 1
7432
T 48200 66800 8 10 0 1 0 0 1
refdes=U?
T 48500 68200 5 10 0 0 0 0 1
footprint=DIP14
T 48500 68400 5 10 0 0 0 0 1
description=4 OR gates with 2 inputs
T 48500 68600 5 10 0 0 0 0 1
net=Vcc:14
T 48500 68800 5 10 0 0 0 0 1
net=GND:7
T 48500 69000 5 10 0 0 0 0 1
documentation=http://www-s.ti.com/sc/ds/sn74hc32.pdf
]
{
T 48500 66800 5 10 0 0 0 0 1
device=7432
T 48200 66800 5 10 1 1 0 0 1
refdes=U1
T 48500 68200 5 10 0 0 0 0 1
footprint=DIP14
}
C 49500 65300 1 0 0 EMBEDDED7432-1.sym
[
L 49760 65500 50100 65500 3 0 0 0 -1 -1
L 49760 66100 50100 66100 3 0 0 0 -1 -1
A 49500 65800 400 312 97 3 0 0 0 -1 -1
P 49800 66000 49500 66000 1 0 1
{
T 49700 66050 5 8 1 1 0 6 1
pinnumber=1
T 49700 65950 5 8 0 1 0 8 1
pinseq=1
T 49850 66000 9 8 0 1 0 0 1
pinlabel=A
T 49850 66000 5 8 0 1 0 2 1
pintype=in
}
P 49800 65600 49500 65600 1 0 1
{
T 49700 65650 5 8 1 1 0 6 1
pinnumber=2
T 49700 65550 5 8 0 1 0 8 1
pinseq=2
T 49850 65600 9 8 0 1 0 0 1
pinlabel=B
T 49850 65600 5 8 0 1 0 2 1
pintype=in
}
P 50800 65800 50488 65800 1 0 0
{
T 50600 65850 5 8 1 1 0 0 1
pinnumber=3
T 50600 65750 5 8 0 1 0 2 1
pinseq=3
T 50450 65800 9 8 0 1 0 6 1
pinlabel=Y
T 50450 65800 5 8 0 1 0 8 1
pintype=out
}
A 50100 65900 400 270 76 3 0 0 0 -1 -1
A 50100 65700 400 14 76 3 0 0 0 -1 -1
T 50100 66200 5 10 0 0 0 0 1
device=7432
T 50100 66400 5 10 0 0 0 0 1
slot=1
T 50100 66600 5 10 0 0 0 0 1
numslots=4
T 50100 66800 5 10 0 0 0 0 1
slotdef=1:1,2,3
T 50100 67000 5 10 0 0 0 0 1
slotdef=2:4,5,6
T 50100 67200 5 10 0 0 0 0 1
slotdef=3:9,10,8
T 50100 67400 5 10 0 0 0 0 1
slotdef=4:12,13,11
T 49800 65300 9 8 1 0 0 0 1
7432
T 49800 66200 8 10 0 1 0 0 1
refdes=U?
T 50100 67600 5 10 0 0 0 0 1
footprint=DIP14
T 50100 67800 5 10 0 0 0 0 1
description=4 OR gates with 2 inputs
T 50100 68000 5 10 0 0 0 0 1
net=Vcc:14
T 50100 68200 5 10 0 0 0 0 1
net=GND:7
T 50100 68400 5 10 0 0 0 0 1
documentation=http://www-s.ti.com/sc/ds/sn74hc32.pdf
]
{
T 50100 66200 5 10 0 0 0 0 1
device=7432
T 49800 66200 5 10 1 1 0 0 1
refdes=U1
T 50100 67600 5 10 0 0 0 0 1
footprint=DIP14
}
C 50900 66400 1 0 0 EMBEDDED7432-1.sym
[
L 51160 66600 51500 66600 3 0 0 0 -1 -1
L 51160 67200 51500 67200 3 0 0 0 -1 -1
A 50900 66900 400 312 97 3 0 0 0 -1 -1
P 51200 67100 50900 67100 1 0 1
{
T 51100 67150 5 8 1 1 0 6 1
pinnumber=1
T 51100 67050 5 8 0 1 0 8 1
pinseq=1
T 51250 67100 9 8 0 1 0 0 1
pinlabel=A
T 51250 67100 5 8 0 1 0 2 1
pintype=in
}
P 51200 66700 50900 66700 1 0 1
{
T 51100 66750 5 8 1 1 0 6 1
pinnumber=2
T 51100 66650 5 8 0 1 0 8 1
pinseq=2
T 51250 66700 9 8 0 1 0 0 1
pinlabel=B
T 51250 66700 5 8 0 1 0 2 1
pintype=in
}
P 52200 66900 51888 66900 1 0 0
{
T 52000 66950 5 8 1 1 0 0 1
pinnumber=3
T 52000 66850 5 8 0 1 0 2 1
pinseq=3
T 51850 66900 9 8 0 1 0 6 1
pinlabel=Y
T 51850 66900 5 8 0 1 0 8 1
pintype=out
}
A 51500 67000 400 270 76 3 0 0 0 -1 -1
A 51500 66800 400 14 76 3 0 0 0 -1 -1
T 51500 67300 5 10 0 0 0 0 1
device=7432
T 51500 67500 5 10 0 0 0 0 1
slot=1
T 51500 67700 5 10 0 0 0 0 1
numslots=4
T 51500 67900 5 10 0 0 0 0 1
slotdef=1:1,2,3
T 51500 68100 5 10 0 0 0 0 1
slotdef=2:4,5,6
T 51500 68300 5 10 0 0 0 0 1
slotdef=3:9,10,8
T 51500 68500 5 10 0 0 0 0 1
slotdef=4:12,13,11
T 51200 66400 9 8 1 0 0 0 1
7432
T 51200 67300 8 10 0 1 0 0 1
refdes=U?
T 51500 68700 5 10 0 0 0 0 1
footprint=DIP14
T 51500 68900 5 10 0 0 0 0 1
description=4 OR gates with 2 inputs
T 51500 69100 5 10 0 0 0 0 1
net=Vcc:14
T 51500 69300 5 10 0 0 0 0 1
net=GND:7
T 51500 69500 5 10 0 0 0 0 1
documentation=http://www-s.ti.com/sc/ds/sn74hc32.pdf
]
{
T 51500 67300 5 10 0 0 0 0 1
device=7432
T 51200 67300 5 10 1 1 0 0 1
refdes=U0
T 51500 68700 5 10 0 0 0 0 1
footprint=DIP14
}
C 49300 70000 1 0 0 EMBEDDED7432-1.sym
[
L 49560 70200 49900 70200 3 0 0 0 -1 -1
L 49560 70800 49900 70800 3 0 0 0 -1 -1
A 49300 70500 400 312 97 3 0 0 0 -1 -1
P 49600 70700 49300 70700 1 0 1
{
T 49500 70750 5 8 1 1 0 6 1
pinnumber=1
T 49500 70650 5 8 0 1 0 8 1
pinseq=1
T 49650 70700 9 8 0 1 0 0 1
pinlabel=A
T 49650 70700 5 8 0 1 0 2 1
pintype=in
}
P 49600 70300 49300 70300 1 0 1
{
T 49500 70350 5 8 1 1 0 6 1
pinnumber=2
T 49500 70250 5 8 0 1 0 8 1
pinseq=2
T 49650 70300 9 8 0 1 0 0 1
pinlabel=B
T 49650 70300 5 8 0 1 0 2 1
pintype=in
}
P 50600 70500 50288 70500 1 0 0
{
T 50400 70550 5 8 1 1 0 0 1
pinnumber=3
T 50400 70450 5 8 0 1 0 2 1
pinseq=3
T 50250 70500 9 8 0 1 0 6 1
pinlabel=Y
T 50250 70500 5 8 0 1 0 8 1
pintype=out
}
A 49900 70600 400 270 76 3 0 0 0 -1 -1
A 49900 70400 400 14 76 3 0 0 0 -1 -1
T 49900 70900 5 10 0 0 0 0 1
device=7432
T 49900 71100 5 10 0 0 0 0 1
slot=1
T 49900 71300 5 10 0 0 0 0 1
numslots=4
T 49900 71500 5 10 0 0 0 0 1
slotdef=1:1,2,3
T 49900 71700 5 10 0 0 0 0 1
slotdef=2:4,5,6
T 49900 71900 5 10 0 0 0 0 1
slotdef=3:9,10,8
T 49900 72100 5 10 0 0 0 0 1
slotdef=4:12,13,11
T 49600 70000 9 8 1 0 0 0 1
7432
T 49600 70900 8 10 0 1 0 0 1
refdes=U?
T 49900 72300 5 10 0 0 0 0 1
footprint=DIP14
T 49900 72500 5 10 0 0 0 0 1
description=4 OR gates with 2 inputs
T 49900 72700 5 10 0 0 0 0 1
net=Vcc:14
T 49900 72900 5 10 0 0 0 0 1
net=GND:7
T 49900 73100 5 10 0 0 0 0 1
documentation=http://www-s.ti.com/sc/ds/sn74hc32.pdf
]
{
T 49900 70900 5 10 0 0 0 0 1
device=7432
T 49600 70900 5 10 1 1 0 0 1
refdes=U0
T 49900 72300 5 10 0 0 0 0 1
footprint=DIP14
}
C 29000 55200 1 0 0 EMBEDDED7432-1.sym
[
L 29260 55400 29600 55400 3 0 0 0 -1 -1
L 29260 56000 29600 56000 3 0 0 0 -1 -1
A 29000 55700 400 312 97 3 0 0 0 -1 -1
P 29300 55900 29000 55900 1 0 1
{
T 29200 55950 5 8 1 1 0 6 1
pinnumber=1
T 29200 55850 5 8 0 1 0 8 1
pinseq=1
T 29350 55900 9 8 0 1 0 0 1
pinlabel=A
T 29350 55900 5 8 0 1 0 2 1
pintype=in
}
P 29300 55500 29000 55500 1 0 1
{
T 29200 55550 5 8 1 1 0 6 1
pinnumber=2
T 29200 55450 5 8 0 1 0 8 1
pinseq=2
T 29350 55500 9 8 0 1 0 0 1
pinlabel=B
T 29350 55500 5 8 0 1 0 2 1
pintype=in
}
P 30300 55700 29988 55700 1 0 0
{
T 30100 55750 5 8 1 1 0 0 1
pinnumber=3
T 30100 55650 5 8 0 1 0 2 1
pinseq=3
T 29950 55700 9 8 0 1 0 6 1
pinlabel=Y
T 29950 55700 5 8 0 1 0 8 1
pintype=out
}
A 29600 55800 400 270 76 3 0 0 0 -1 -1
A 29600 55600 400 14 76 3 0 0 0 -1 -1
T 29600 56100 5 10 0 0 0 0 1
device=7432
T 29600 56300 5 10 0 0 0 0 1
slot=1
T 29600 56500 5 10 0 0 0 0 1
numslots=4
T 29600 56700 5 10 0 0 0 0 1
slotdef=1:1,2,3
T 29600 56900 5 10 0 0 0 0 1
slotdef=2:4,5,6
T 29600 57100 5 10 0 0 0 0 1
slotdef=3:9,10,8
T 29600 57300 5 10 0 0 0 0 1
slotdef=4:12,13,11
T 29300 55200 9 8 1 0 0 0 1
7432
T 29300 56100 8 10 0 1 0 0 1
refdes=U?
T 29600 57500 5 10 0 0 0 0 1
footprint=DIP14
T 29600 57700 5 10 0 0 0 0 1
description=4 OR gates with 2 inputs
T 29600 57900 5 10 0 0 0 0 1
net=Vcc:14
T 29600 58100 5 10 0 0 0 0 1
net=GND:7
T 29600 58300 5 10 0 0 0 0 1
documentation=http://www-s.ti.com/sc/ds/sn74hc32.pdf
]
{
T 29600 56100 5 10 0 0 0 0 1
device=7432
T 29300 56100 5 10 1 1 0 0 1
refdes=U?
T 29600 57500 5 10 0 0 0 0 1
footprint=DIP14
}
C 31200 53500 1 0 0 EMBEDDED7432-1.sym
[
L 31460 53700 31800 53700 3 0 0 0 -1 -1
L 31460 54300 31800 54300 3 0 0 0 -1 -1
A 31200 54000 400 312 97 3 0 0 0 -1 -1
P 31500 54200 31200 54200 1 0 1
{
T 31400 54250 5 8 1 1 0 6 1
pinnumber=1
T 31400 54150 5 8 0 1 0 8 1
pinseq=1
T 31550 54200 9 8 0 1 0 0 1
pinlabel=A
T 31550 54200 5 8 0 1 0 2 1
pintype=in
}
P 31500 53800 31200 53800 1 0 1
{
T 31400 53850 5 8 1 1 0 6 1
pinnumber=2
T 31400 53750 5 8 0 1 0 8 1
pinseq=2
T 31550 53800 9 8 0 1 0 0 1
pinlabel=B
T 31550 53800 5 8 0 1 0 2 1
pintype=in
}
P 32500 54000 32188 54000 1 0 0
{
T 32300 54050 5 8 1 1 0 0 1
pinnumber=3
T 32300 53950 5 8 0 1 0 2 1
pinseq=3
T 32150 54000 9 8 0 1 0 6 1
pinlabel=Y
T 32150 54000 5 8 0 1 0 8 1
pintype=out
}
A 31800 54100 400 270 76 3 0 0 0 -1 -1
A 31800 53900 400 14 76 3 0 0 0 -1 -1
T 31800 54400 5 10 0 0 0 0 1
device=7432
T 31800 54600 5 10 0 0 0 0 1
slot=1
T 31800 54800 5 10 0 0 0 0 1
numslots=4
T 31800 55000 5 10 0 0 0 0 1
slotdef=1:1,2,3
T 31800 55200 5 10 0 0 0 0 1
slotdef=2:4,5,6
T 31800 55400 5 10 0 0 0 0 1
slotdef=3:9,10,8
T 31800 55600 5 10 0 0 0 0 1
slotdef=4:12,13,11
T 31500 53500 9 8 1 0 0 0 1
7432
T 31500 54400 8 10 0 1 0 0 1
refdes=U?
T 31800 55800 5 10 0 0 0 0 1
footprint=DIP14
T 31800 56000 5 10 0 0 0 0 1
description=4 OR gates with 2 inputs
T 31800 56200 5 10 0 0 0 0 1
net=Vcc:14
T 31800 56400 5 10 0 0 0 0 1
net=GND:7
T 31800 56600 5 10 0 0 0 0 1
documentation=http://www-s.ti.com/sc/ds/sn74hc32.pdf
]
{
T 31800 54400 5 10 0 0 0 0 1
device=7432
T 31500 54400 5 10 1 1 0 0 1
refdes=U?
T 31800 55800 5 10 0 0 0 0 1
footprint=DIP14
}
C 33900 52800 1 0 0 EMBEDDED7432-1.sym
[
L 34160 53000 34500 53000 3 0 0 0 -1 -1
L 34160 53600 34500 53600 3 0 0 0 -1 -1
A 33900 53300 400 312 97 3 0 0 0 -1 -1
P 34200 53500 33900 53500 1 0 1
{
T 34100 53550 5 8 1 1 0 6 1
pinnumber=1
T 34100 53450 5 8 0 1 0 8 1
pinseq=1
T 34250 53500 9 8 0 1 0 0 1
pinlabel=A
T 34250 53500 5 8 0 1 0 2 1
pintype=in
}
P 34200 53100 33900 53100 1 0 1
{
T 34100 53150 5 8 1 1 0 6 1
pinnumber=2
T 34100 53050 5 8 0 1 0 8 1
pinseq=2
T 34250 53100 9 8 0 1 0 0 1
pinlabel=B
T 34250 53100 5 8 0 1 0 2 1
pintype=in
}
P 35200 53300 34888 53300 1 0 0
{
T 35000 53350 5 8 1 1 0 0 1
pinnumber=3
T 35000 53250 5 8 0 1 0 2 1
pinseq=3
T 34850 53300 9 8 0 1 0 6 1
pinlabel=Y
T 34850 53300 5 8 0 1 0 8 1
pintype=out
}
A 34500 53400 400 270 76 3 0 0 0 -1 -1
A 34500 53200 400 14 76 3 0 0 0 -1 -1
T 34500 53700 5 10 0 0 0 0 1
device=7432
T 34500 53900 5 10 0 0 0 0 1
slot=1
T 34500 54100 5 10 0 0 0 0 1
numslots=4
T 34500 54300 5 10 0 0 0 0 1
slotdef=1:1,2,3
T 34500 54500 5 10 0 0 0 0 1
slotdef=2:4,5,6
T 34500 54700 5 10 0 0 0 0 1
slotdef=3:9,10,8
T 34500 54900 5 10 0 0 0 0 1
slotdef=4:12,13,11
T 34200 52800 9 8 1 0 0 0 1
7432
T 34200 53700 8 10 0 1 0 0 1
refdes=U?
T 34500 55100 5 10 0 0 0 0 1
footprint=DIP14
T 34500 55300 5 10 0 0 0 0 1
description=4 OR gates with 2 inputs
T 34500 55500 5 10 0 0 0 0 1
net=Vcc:14
T 34500 55700 5 10 0 0 0 0 1
net=GND:7
T 34500 55900 5 10 0 0 0 0 1
documentation=http://www-s.ti.com/sc/ds/sn74hc32.pdf
]
{
T 34500 53700 5 10 0 0 0 0 1
device=7432
T 34200 53700 5 10 1 1 0 0 1
refdes=U?
T 34500 55100 5 10 0 0 0 0 1
footprint=DIP14
}
C 43200 64500 1 0 0 74393-1.sym
{
T 43500 68240 5 10 0 0 0 0 1
device=74393
T 43500 68040 5 10 0 0 0 0 1
footprint=DIP14
T 44900 67900 5 10 1 1 0 6 1
refdes=U2
}
N 45200 66300 45900 66300 4
N 45900 63700 45900 67500 4
N 45900 63700 42700 63700 4
N 42700 63700 42700 65500 4
N 42700 65500 43200 65500 4
N 43200 65100 42100 65100 4
N 42100 64900 42100 66700 4
N 42100 66700 43200 66700 4
C 42000 64600 1 0 0 gnd-1.sym
N 45200 65100 46400 65100 4
N 46400 64700 45200 64700 4
N 47700 64900 47900 64900 4
N 45200 65500 47900 65500 4
N 47900 65500 47900 65300 4
N 45200 65900 47900 65900 4
N 47900 65900 47900 66200 4
N 45200 66700 47900 66700 4
N 47900 66700 47900 66600 4
N 47900 67500 45900 67500 4
N 45200 67100 45700 67100 4
N 45700 67100 45700 67900 4
N 45700 67900 47900 67900 4
N 49200 65100 49500 65100 4
N 49500 65100 49500 65600 4
N 49200 66400 49500 66400 4
N 49500 66400 49500 66000 4
N 50800 65800 50900 65800 4
N 50900 65800 50900 66700 4
N 49200 67700 50900 67700 4
N 50900 67700 50900 67100 4
C 57200 61500 1 0 0 z80.sym
{
T 57600 69750 5 10 0 0 0 0 1
device=Z80
T 60600 69500 5 10 1 1 0 6 1
refdes=U-Z80
T 57600 70150 5 10 0 0 0 0 1
footprint=DIP40
}
N 56400 63200 57300 63200 4
N 47000 69800 47800 69800 4
N 49300 70700 48900 70700 4
N 48900 70700 48900 71000 4
N 49300 70300 48900 70300 4
N 48900 70300 48900 69800 4
N 47000 67500 47000 69800 4
N 47800 71000 46600 71000 4
N 46600 71000 46600 67900 4
N 50600 70500 51000 70500 4
N 51000 70500 51000 69600 4
N 50900 66300 50300 66300 4
N 50300 66300 50300 69200 4
N 50300 69200 51000 69200 4
N 43200 67100 41400 67100 4
N 41400 61900 57300 61900 4
C 54400 63600 1 0 0 7474-1.sym
{
T 56200 65400 5 10 0 0 0 0 1
device=7474
T 55700 65600 5 10 1 1 0 6 1
refdes=U?
T 56200 66400 5 10 0 0 0 0 1
footprint=DIP14
}
N 52200 66900 52600 66900 4
N 52600 66900 52600 65500 4
N 50100 63800 49600 63800 4
N 49600 63800 49600 61900 4
N 51200 63800 52600 63800 4
N 52600 63800 52600 65100 4
N 53900 65300 53900 66300 4
N 53900 66300 55200 66300 4
N 55200 66300 55200 65800 4
N 56000 64200 56400 64200 4
N 56400 64200 56400 63200 4
N 54400 65200 54400 66300 4
N 57300 66000 56600 66000 4
N 56600 66000 56600 63000 4
N 55000 63000 56600 63000 4
N 57300 62800 55000 62800 4
N 55000 62800 55000 62600 4
N 53100 64200 54400 64200 4
N 53100 64000 53100 64200 4
N 53700 62800 53100 62800 4
N 53100 62800 53100 62900 4
N 41400 61900 41400 67100 4
